{
	"sliderElements": [
		{
			"id": "sl1",
			"src": "/src/asset/images/slide1.jpg"
		},
		{
			"id": "sl2",
			"src": "/src/asset/images/slide2.jpg"
		},
		{
			"id": "sl3",
			"src": "/src/asset/images/slide3.jpg"
		},
		{
			"id": "sl4",
			"src": "/src/asset/images/slide4.jpg"
		}
	]
}